CUDA_VISIBLE_DEVICES : 0
--------------------------------------------------------------------
SLURM_NODELIST=t3gpu01
SLURM_JOB_NAME=train_job
MANPATH=/cvmfs/cms.cern.ch//share/man:/opt/glite/share/man:::/opt/puppetlabs/puppet/share/man
XDG_SESSION_ID=4067
SLURMD_NODENAME=t3gpu01
SLURM_TOPOLOGY_ADDR=t3gpu01
HOSTNAME=t3gpu01
GLITE_SD_PLUGIN=file,bdii
SLURM_PRIO_PROCESS=0
SLURM_NODE_ALIASES=(null)
PYENV_ROOT=/t3home/vmikuni/.pyenv
SHELL=/bin/bash
TERM=xterm-256color
GRID_ENV_LOCATION=/etc/profile.d
SLURM_JOB_QOS=normal
HISTSIZE=1000
VOMS_USERCONF=/etc/vomses
TMPDIR=/tmp
SLURM_TOPOLOGY_ADDR_PATTERN=node
SSH_CLIENT=213.55.221.40 40466 22
CPPFLAGS= -I/include
GT_PROXY_MODE=old
DPM_HOST=my-dpm.psi.ch
CVSROOT=:gserver:cmssw.cvs.cern.ch:/local/reps/CMSSW
SLURM_JOB_GPUS=0
X509_CERT_DIR=/etc/grid-security/certificates
SCRAM_ARCH=slc7_amd64_gcc820
COFFEAHOME=/work/vmikuni/ML/coffea/QG
SSH_TTY=/dev/pts/47
LC_ALL=en_US.utf-8
PYENV_VERSION=QGCPU
SLURM_NNODES=1
USER=vmikuni
LS_COLORS=rs=0:di=38;5;27:ln=38;5;51:mh=44;38;5;15:pi=40;38;5;11:so=38;5;13:do=38;5;5:bd=48;5;232;38;5;11:cd=48;5;232;38;5;3:or=48;5;232;38;5;9:mi=05;48;5;232;38;5;15:su=48;5;196;38;5;15:sg=48;5;11;38;5;16:ca=48;5;196;38;5;226:tw=48;5;10;38;5;16:ow=48;5;10;38;5;21:st=48;5;21;38;5;15:ex=38;5;34:*.tar=38;5;9:*.tgz=38;5;9:*.arc=38;5;9:*.arj=38;5;9:*.taz=38;5;9:*.lha=38;5;9:*.lz4=38;5;9:*.lzh=38;5;9:*.lzma=38;5;9:*.tlz=38;5;9:*.txz=38;5;9:*.tzo=38;5;9:*.t7z=38;5;9:*.zip=38;5;9:*.z=38;5;9:*.Z=38;5;9:*.dz=38;5;9:*.gz=38;5;9:*.lrz=38;5;9:*.lz=38;5;9:*.lzo=38;5;9:*.xz=38;5;9:*.bz2=38;5;9:*.bz=38;5;9:*.tbz=38;5;9:*.tbz2=38;5;9:*.tz=38;5;9:*.deb=38;5;9:*.rpm=38;5;9:*.jar=38;5;9:*.war=38;5;9:*.ear=38;5;9:*.sar=38;5;9:*.rar=38;5;9:*.alz=38;5;9:*.ace=38;5;9:*.zoo=38;5;9:*.cpio=38;5;9:*.7z=38;5;9:*.rz=38;5;9:*.cab=38;5;9:*.jpg=38;5;13:*.jpeg=38;5;13:*.gif=38;5;13:*.bmp=38;5;13:*.pbm=38;5;13:*.pgm=38;5;13:*.ppm=38;5;13:*.tga=38;5;13:*.xbm=38;5;13:*.xpm=38;5;13:*.tif=38;5;13:*.tiff=38;5;13:*.png=38;5;13:*.svg=38;5;13:*.svgz=38;5;13:*.mng=38;5;13:*.pcx=38;5;13:*.mov=38;5;13:*.mpg=38;5;13:*.mpeg=38;5;13:*.m2v=38;5;13:*.mkv=38;5;13:*.webm=38;5;13:*.ogm=38;5;13:*.mp4=38;5;13:*.m4v=38;5;13:*.mp4v=38;5;13:*.vob=38;5;13:*.qt=38;5;13:*.nuv=38;5;13:*.wmv=38;5;13:*.asf=38;5;13:*.rm=38;5;13:*.rmvb=38;5;13:*.flc=38;5;13:*.avi=38;5;13:*.fli=38;5;13:*.flv=38;5;13:*.gl=38;5;13:*.dl=38;5;13:*.xcf=38;5;13:*.xwd=38;5;13:*.yuv=38;5;13:*.cgm=38;5;13:*.emf=38;5;13:*.axv=38;5;13:*.anx=38;5;13:*.ogv=38;5;13:*.ogx=38;5;13:*.aac=38;5;45:*.au=38;5;45:*.flac=38;5;45:*.mid=38;5;45:*.midi=38;5;45:*.mka=38;5;45:*.mp3=38;5;45:*.mpc=38;5;45:*.ogg=38;5;45:*.ra=38;5;45:*.wav=38;5;45:*.axa=38;5;45:*.oga=38;5;45:*.spx=38;5;45:*.xspf=38;5;45:
VO_CMS_SW_DIR=/cvmfs/cms.cern.ch/
LCG_LOCATION=/usr
SLURM_JOBID=479897
PYENV_VIRTUALENV_INIT=1
VIRTUAL_ENV=/t3home/vmikuni/.pyenv/versions/anaconda3-2018.12/envs/QGCPU
PYENV_VIRTUAL_ENV=/t3home/vmikuni/.pyenv/versions/anaconda3-2018.12/envs/QGCPU
SLURM_TASKS_PER_NODE=1
PATH=/t3home/vmikuni/.pyenv/plugins/pyenv-virtualenv/shims:/t3home/vmikuni/.pyenv/shims:/t3home/vmikuni/.pyenv/bin:/cvmfs/cms.cern.ch/common:/t3home/vmikuni/.pyenv/plugins/pyenv-virtualenv/shims:/t3home/vmikuni/.pyenv/shims:/t3home/vmikuni/.pyenv/bin:/bin:/usr/local/bin:/usr/bin:/usr/local/sbin:/usr/sbin:/opt/puppetlabs/bin:/t3home/vmikuni/bin
MAIL=/var/spool/mail/vmikuni
SLURM_WORKING_CLUSTER=tier3:t3slurm.psi.ch:6817:8704:101
DPNS_HOST=my-dpm.psi.ch
SLURM_JOB_ID=479897
CMS_PATH=/cvmfs/cms.cern.ch/
VO_CMS_DEFAULT_SE=t3se01.psi.ch
CONDA_PREFIX=/t3home/vmikuni/.pyenv/versions/anaconda3-2018.12/envs/QGCPU
SLURM_JOB_USER=vmikuni
PWD=/work/vmikuni/ML/coffea/QG/scripts
CUDA_VISIBLE_DEVICES=0
LANG=en_US.UTF-8
SLURM_JOB_UID=657
X509_VOMS_DIR=/etc/grid-security/vomsdir
SLURM_NODEID=0
BDII_LIST=lcg-bdii.cern.ch:2170
_OLD_VIRTUAL_PS1=[\u@\h \W]\$ 
SLURM_SUBMIT_DIR=/work/vmikuni/ML/coffea/QG/scripts
MYPROXY_SERVER=myproxy.cern.ch
SLURM_TASK_PID=1126
SLURM_CPUS_ON_NODE=1
SLURM_PROCID=0
ENVIRONMENT=BATCH
HISTCONTROL=ignoredups
SLURM_JOB_NODELIST=t3gpu01
GLITE_SD_SERVICES_XML=/usr/etc/services.xml
HOME=/t3home/vmikuni
SHLVL=2
GLITE_LOCATION_VAR=/var
PYENV_SHELL=bash
SLURM_LOCALID=0
GLOBUS_TCP_PORT_RANGE=20000,25000
X509_USER_PROXY=/t3home/vmikuni/.x509up_u657
SLURM_JOB_GID=537
SLURM_JOB_CPUS_PER_NODE=1
SLURM_CLUSTER_NAME=tier3
SLURM_GTIDS=0
SLURM_SUBMIT_HOST=t3ui03.psi.ch
SLURM_JOB_PARTITION=gpu
LOGNAME=vmikuni
LCG_GFAL_INFOSYS=lcg-bdii.cern.ch:2170
GPU_DEVICE_ORDINAL=0
SLURM_JOB_ACCOUNT=gpu_gres
SSH_CONNECTION=213.55.221.40 40466 192.33.123.85 22
XDG_DATA_DIRS=/t3home/vmikuni/.local/share/flatpak/exports/share:/var/lib/flatpak/exports/share:/usr/local/share:/usr/share
SLURM_JOB_NUM_NODES=1
LESSOPEN=||/usr/bin/lesspipe.sh %s
OMP_NUM_THREADS=1
CONDA_DEFAULT_ENV=QGCPU
COFFEADATA=/work/vmikuni/ML/coffea/QG/data
XDG_RUNTIME_DIR=/run/user/657
GLITE_LOCATION=/usr
PYENV_ACTIVATE_SHELL=1
SLURM_MEM_PER_NODE=20000
SRM_PATH=/usr/share/srm
_=/bin/env
--------------------------------------------------------------------
  system
  3.6.7
  3.6.7/envs/3.6.8
  3.6.7/envs/COFFEA
  3.6.8
  3.6.8/envs/TFLOC
  anaconda3-2018.12
  anaconda3-2018.12/envs/GPU
  anaconda3-2018.12/envs/QGCPU
  anaconda3-2018.12/envs/QGGPU
  anaconda3-2018.12/envs/TFCPU
  anaconda3-2018.12/envs/TFGPU
  COFFEA
  GPU
  QGCPU
* QGGPU (set by PYENV_VERSION environment variable)
  TFCPU
  TFGPU
  TFLOC
--------------------------------------------------------------------
Mon May  4 21:50:44 2020       
+-----------------------------------------------------------------------------+
| NVIDIA-SMI 418.67       Driver Version: 418.67       CUDA Version: 10.1     |
|-------------------------------+----------------------+----------------------+
| GPU  Name        Persistence-M| Bus-Id        Disp.A | Volatile Uncorr. ECC |
| Fan  Temp  Perf  Pwr:Usage/Cap|         Memory-Usage | GPU-Util  Compute M. |
|===============================+======================+======================|
|   0  GeForce GTX 108...  Off  | 00000000:04:00.0 Off |                  N/A |
| 21%   38C    P0    58W / 250W |      0MiB / 11178MiB |      0%      Default |
+-------------------------------+----------------------+----------------------+
|   1  GeForce GTX 108...  Off  | 00000000:06:00.0 Off |                  N/A |
| 13%   28C    P0    56W / 250W |      0MiB / 11178MiB |      0%      Default |
+-------------------------------+----------------------+----------------------+
|   2  GeForce GTX 108...  Off  | 00000000:07:00.0 Off |                  N/A |
| 14%   29C    P0    58W / 250W |      0MiB / 11178MiB |      0%      Default |
+-------------------------------+----------------------+----------------------+
|   3  GeForce GTX 108...  Off  | 00000000:08:00.0 Off |                  N/A |
| 12%   27C    P0    56W / 250W |      0MiB / 11178MiB |      0%      Default |
+-------------------------------+----------------------+----------------------+
|   4  GeForce GTX 108...  Off  | 00000000:0C:00.0 Off |                  N/A |
| 12%   28C    P0    58W / 250W |      0MiB / 11178MiB |      0%      Default |
+-------------------------------+----------------------+----------------------+
|   5  GeForce GTX 108...  Off  | 00000000:0D:00.0 Off |                  N/A |
| 13%   30C    P0    58W / 250W |      0MiB / 11178MiB |      0%      Default |
+-------------------------------+----------------------+----------------------+
|   6  GeForce GTX 108...  Off  | 00000000:0E:00.0 Off |                  N/A |
| 12%   28C    P0    57W / 250W |      0MiB / 11178MiB |      0%      Default |
+-------------------------------+----------------------+----------------------+
|   7  GeForce GTX 108...  Off  | 00000000:0F:00.0 Off |                  N/A |
| 10%   26C    P0    52W / 250W |      0MiB / 11178MiB |      3%      Default |
+-------------------------------+----------------------+----------------------+
                                                                               
+-----------------------------------------------------------------------------+
| Processes:                                                       GPU Memory |
|  GPU       PID   Type   Process name                             Usage      |
|=============================================================================|
|  No running processes found                                                 |
+-----------------------------------------------------------------------------+
--------------------------------------------------------------------
pid: 1334
--- Get model and loss
--- Get training operator
Total number of weights for the model: 254501.0
**** EPOCH 000 ****
----0-----
loaded 894011 events
2020-05-04 21:51:50.178594
mean loss: 0.438800
accuracy: 0.803456
----0-----
loaded 595614 events
2020-05-04 22:05:26.819347
---- EPOCH 000 EVALUATION ----
Eval time: 0.5487351417541504
1/effB at 0.3000055978789128 effS: 73.26620157885074
mean loss: 0.523667
accuracy: 0.808287
Model saved in file: ../logs/qg_cms/model_0.ckpt
**** EPOCH 001 ****
